^C:\USERS\NGUYENHANH\DOWNLOADS\TEST_CODE\BUILD\CMAKEFILES\EEC29651AFE94B2B57A0F1DC8E785DAC\GENERATE.STAMP.RULE
C:\USERS\NGUYENHANH\DOWNLOADS\TEST_CODE\BUILD\CMAKEFILES\GENERATE.STAMP
F:\OPENGL\GLFW-3.3.2\DEBUG\CMAKEFILES\GENERATE.STAMP
F:\OPENGL\GLFW-3.3.2\DEBUG\SRC\CMAKEFILES\GENERATE.STAMP
