^C:\USERS\NGUYENHANH\DOWNLOADS\TEST_CODE\BUILD\CMAKEFILES\EEC29651AFE94B2B57A0F1DC8E785DAC\GENERATE.STAMP.RULE
setlocal
"C:\Program Files (x86)\cmake-3.17.0-rc1-win64-x64\bin\cmake.exe" -SC:/Users/nguyenhanh/Downloads/test_code -BC:/Users/nguyenhanh/Downloads/test_code/build --check-stamp-list CMakeFiles/generate.stamp.list --vs-solution-file C:/Users/nguyenhanh/Downloads/test_code/build/OpenGL_Hello_World.sln
if %errorlevel% neq 0 goto :cmEnd
:cmEnd
endlocal & call :cmErrorLevel %errorlevel% & goto :cmDone
:cmErrorLevel
exit /b %1
:cmDone
if %errorlevel% neq 0 goto :VCEnd
